Plotly
…
part_ny_noaa

## # A tibble: 10,000 × 9
##    id           year month   day  prcp  snow  snwd  tmax  tmin
##    <chr>       <dbl> <dbl> <dbl> <dbl> <int> <int> <dbl> <dbl>
##  1 USC00300331  2006     1     5   1.8     0     0   5     1.1
##  2 USC00300443  2010     7     6   0       0     0  32.8  22.2
##  3 USW00014733  2006    11     4   0       0     0   4.4  -1.1
##  4 USW00094794  2005    10    23   5.6    NA    NA   6.1   2.8
##  5 USC00309389  2005     5    14   0       0     0  19.4  10  
##  6 USC00308600  2009     2    21   0       0     0  -1.7  -6.7
##  7 USC00300183  2010     6    14   1.3    NA    NA  28.3  16.7
##  8 USW00094725  2009     4    28  10.2    NA    NA  21.7   6.1
##  9 USW00004789  2009     4    20  12.7    NA    NA   8.9   4.4
## 10 USC00304174  2010    10    14   0       0     0  17.2   0  
## # … with 9,990 more rows
…
